<svg width="154" height="31" viewBox="0 0 154 31" fill="none" xmlns="http://www.w3.org/2000/svg">
<path d="M10.4055 0H9.7V1.10714H7.58373L0 31H2.11636L9.7 1.17671V31H10.4055V0Z" fill="#181D24"/>
<path d="M11.9927 0H11.64V31H11.9927V0Z" fill="#181D24"/>
<path d="M20.4557 0H20.8084V31H20.4557V0Z" fill="#181D24"/>
<path d="M32.2721 0H31.9193V31H32.2721V0Z" fill="#181D24"/>
<path d="M46.7339 0H47.0866V31H46.7339V0Z" fill="#181D24"/>
<path d="M50.9666 0H50.6139V31H50.9666V0Z" fill="#181D24"/>
<path d="M63.4884 0H64.1939V31H63.4884V0Z" fill="#181D24"/>
<path d="M69.4848 0H68.7793V31H69.4848V0Z" fill="#181D24"/>
<path d="M75.131 0H73.0146V31H75.131V0Z" fill="#181D24"/>
<path d="M45.1466 0H45.4993V10.5179H45.1491V11.0714H45.4993V12.1786H45.1491V12.7321H45.4993V31H45.1466V0Z" fill="#181D24"/>
<path d="M55.1993 0H54.1412V31H55.1993V7.75H54.1437V7.19643H55.1993V6.64286H54.1437V6.08928H55.1993V5.53571H54.1437V4.98214H55.1993V0Z" fill="#181D24"/>
<path d="M35.4466 0H36.5048V31H35.4466V0Z" fill="#181D24"/>
<path d="M23.1011 0H22.043V31H23.1011V25.2798H22.0455V23.4345H23.1011V0Z" fill="#181D24"/>
<path d="M52.2012 0H52.9066V17.1607H52.2037V19.375H52.9066V31H52.2012V0Z" fill="#181D24"/>
<path d="M19.2211 0.830357H18.5157V31H19.2211V12.7321H18.5182V12.1786H19.2211V11.0714H18.5182V10.5179H19.2211V0.830357Z" fill="#181D24"/>
<path d="M13.2273 0.830357H13.9327V17.1607H13.2273V0.830357Z" fill="#181D24"/>
<path d="M13.2273 17.7143V31H13.9327V17.7143H13.2273Z" fill="#181D24"/>
<path d="M33.5066 0H34.2121V10.5179H33.5066V0Z" fill="#181D24"/>
<path d="M33.5066 12.7321V31H34.2121V12.7321H33.5066Z" fill="#181D24"/>
<path d="M28.3921 0H27.6866V31H28.3921V0Z" fill="#181D24"/>
<path d="M43.5593 0H43.9121V31H43.5593V0Z" fill="#181D24"/>
<path d="M42.3248 0.830357H41.0902V31H42.3248V26.0179H41.0927V25.4643H42.3248V24.9107H41.0927V24.3571H42.3248V23.8036H41.0927V23.25H42.3248V0.830357Z" fill="#181D24"/>
<path d="M70.7193 0.830357H71.7775V17.1607H70.7218V17.7143H71.7775V18.8214H70.7218V19.375H71.7775V31H70.7193V0.830357Z" fill="#181D24"/>
<path d="M62.2539 0H61.3721V31H62.2539V0Z" fill="#181D24"/>
<path d="M48.3212 0.830357H49.3793V31H48.3212V0.830357Z" fill="#181D24"/>
<path d="M30.6848 0H29.6266V31H30.6848V0Z" fill="#181D24"/>
<path d="M56.4339 0H56.7866V31H56.4339V0Z" fill="#181D24"/>
<path d="M67.5448 0H65.4284V31H67.5448V7.0119H65.4309V6.27381H67.5448V5.53571H65.4309V4.79762H67.5448V0Z" fill="#181D24"/>
<path d="M58.0212 0H60.1375V10.5179H58.0237V12.3631H60.1375V31H58.0212V0Z" fill="#181D24"/>
<path d="M39.8557 0H37.7393V4.79762H39.8557V0Z" fill="#181D24"/>
<path d="M39.8557 6.64286H37.7393V31H39.8557V6.64286Z" fill="#181D24"/>
<path d="M24.3357 0.830357H26.4521V31H24.3357V0.830357Z" fill="#181D24"/>
<path d="M17.2836 0H15.1673V25.2798H17.2836V0Z" fill="#181D24"/>
<path d="M17.2836 26.3869H15.1673V31H17.2836V26.3869Z" fill="#181D24"/>
<path d="M78.869 26.2348H79.3388V27.8935H81.2583V26.2348H81.7281V30.1507H81.2583V28.3381H79.3388V30.1507H78.869V26.2348Z" fill="#181D24"/>
<path d="M84.6409 30.2704C84.2627 30.2666 83.9227 30.1792 83.621 30.0082C83.323 29.8334 83.0881 29.5978 82.9162 29.3014C82.7481 29.0012 82.6641 28.663 82.6641 28.2868V28.1215C82.6641 27.7605 82.7501 27.4299 82.9219 27.1297C83.0977 26.8257 83.3345 26.5863 83.6324 26.4115C83.9342 26.2329 84.2627 26.1437 84.6179 26.1437C84.977 26.1437 85.3055 26.2329 85.6035 26.4115C85.9014 26.5863 86.1382 26.8257 86.3139 27.1297C86.4897 27.4299 86.5775 27.7605 86.5775 28.1215V28.2868C86.5775 28.663 86.4916 29.0031 86.3197 29.3071C86.1516 29.6111 85.9205 29.8486 85.6264 30.0196C85.3322 30.1906 85.0037 30.2742 84.6409 30.2704ZM84.6237 29.8372C84.9025 29.8372 85.1546 29.7707 85.38 29.6377C85.6054 29.5009 85.783 29.3147 85.9129 29.0791C86.0427 28.8435 86.1077 28.5794 86.1077 28.2868V28.1215C86.1077 27.8441 86.0408 27.5876 85.9071 27.352C85.7734 27.1126 85.592 26.9245 85.3628 26.7877C85.1374 26.6471 84.8872 26.5768 84.6122 26.5768C84.341 26.5768 84.0927 26.6471 83.8674 26.7877C83.642 26.9245 83.4624 27.1126 83.3288 27.352C83.1989 27.5876 83.1339 27.8441 83.1339 28.1215V28.2868C83.1339 28.5794 83.1989 28.8435 83.3288 29.0791C83.4586 29.3147 83.6362 29.5009 83.8616 29.6377C84.0908 29.7707 84.3448 29.8372 84.6237 29.8372Z" fill="#181D24"/>
<path d="M89.6195 28.1101C89.9862 28.3305 90.1696 28.6459 90.1696 29.0563C90.1696 29.2957 90.1008 29.5142 89.9633 29.7118C89.8258 29.9056 89.631 30.0424 89.3789 30.1222C89.2146 30.1754 88.9912 30.202 88.7085 30.202C88.3151 30.202 88.0324 30.1925 87.8605 30.1735L87.511 30.1336V26.1722H88.8059C88.9969 26.1722 89.1573 26.1969 89.2872 26.2463C89.5088 26.3298 89.6826 26.459 89.8086 26.6338C89.9347 26.8086 89.9977 27.01 89.9977 27.238C89.9977 27.5876 89.843 27.8403 89.5336 27.9961C89.5107 28.0075 89.4706 28.0227 89.4133 28.0417C89.4362 28.0417 89.4687 28.0493 89.5107 28.0645C89.5565 28.0797 89.5928 28.0949 89.6195 28.1101ZM87.9808 26.6167V27.8593H88.8002C89.0179 27.8593 89.1936 27.8042 89.3273 27.694C89.461 27.5838 89.5279 27.4242 89.5279 27.2152C89.5279 27.0328 89.4725 26.8922 89.3617 26.7934C89.2509 26.6908 89.0905 26.6319 88.8804 26.6167H87.9808ZM88.7658 29.7688C89.0638 29.7688 89.2949 29.708 89.4591 29.5864C89.6234 29.4648 89.7055 29.2881 89.7055 29.0563C89.7055 28.8321 89.6291 28.6497 89.4763 28.5091C89.3273 28.3685 89.1153 28.2982 88.8403 28.2982H87.9808V29.7403L88.3934 29.7574L88.7658 29.7688Z" fill="#181D24"/>
<path d="M91.0934 26.2406H93.4942V26.6737H91.5633V30.1564H91.0934V26.2406Z" fill="#181D24"/>
<path d="M95.8637 30.2704C95.4856 30.2666 95.1456 30.1792 94.8438 30.0082C94.5459 29.8334 94.311 29.5978 94.1391 29.3014C93.971 29.0012 93.887 28.663 93.887 28.2868V28.1215C93.887 27.7605 93.9729 27.4299 94.1448 27.1297C94.3205 26.8257 94.5573 26.5863 94.8553 26.4115C95.1571 26.2329 95.4856 26.1437 95.8408 26.1437C96.1999 26.1437 96.5284 26.2329 96.8263 26.4115C97.1243 26.5863 97.3611 26.8257 97.5368 27.1297C97.7125 27.4299 97.8004 27.7605 97.8004 28.1215V28.2868C97.8004 28.663 97.7144 29.0031 97.5425 29.3071C97.3745 29.6111 97.1434 29.8486 96.8492 30.0196C96.5551 30.1906 96.2266 30.2742 95.8637 30.2704ZM95.8465 29.8372C96.1254 29.8372 96.3775 29.7707 96.6029 29.6377C96.8282 29.5009 97.0058 29.3147 97.1357 29.0791C97.2656 28.8435 97.3305 28.5794 97.3305 28.2868V28.1215C97.3305 27.8441 97.2637 27.5876 97.13 27.352C96.9963 27.1126 96.8149 26.9245 96.5857 26.7877C96.3603 26.6471 96.1101 26.5768 95.8351 26.5768C95.5639 26.5768 95.3156 26.6471 95.0902 26.7877C94.8648 26.9245 94.6853 27.1126 94.5516 27.352C94.4217 27.5876 94.3568 27.8441 94.3568 28.1215V28.2868C94.3568 28.5794 94.4217 28.8435 94.5516 29.0791C94.6815 29.3147 94.8591 29.5009 95.0845 29.6377C95.3137 29.7707 95.5677 29.8372 95.8465 29.8372Z" fill="#181D24"/>
<path d="M99.9277 26.2348C100.153 26.2348 100.352 26.2881 100.524 26.3944C100.699 26.5008 100.835 26.649 100.93 26.839C101.026 27.029 101.074 27.2437 101.074 27.4831C101.074 27.8745 100.944 28.1823 100.684 28.4065C100.424 28.6307 100.044 28.7428 99.5438 28.7428L99.1198 28.7314V30.1507H98.6499V26.2348H99.9277ZM99.6125 28.3096C99.9372 28.3096 100.184 28.2374 100.352 28.093C100.52 27.9448 100.604 27.7358 100.604 27.466C100.604 27.2152 100.535 27.0195 100.397 26.8789C100.26 26.7383 100.079 26.668 99.8532 26.668H99.1198V28.2925L99.3203 28.2982C99.4655 28.3058 99.5629 28.3096 99.6125 28.3096Z" fill="#181D24"/>
<path d="M103.409 30.2704C103.031 30.2666 102.691 30.1792 102.389 30.0082C102.091 29.8334 101.856 29.5978 101.684 29.3014C101.516 29.0012 101.432 28.663 101.432 28.2868V28.1215C101.432 27.7605 101.518 27.4299 101.69 27.1297C101.866 26.8257 102.103 26.5863 102.401 26.4115C102.702 26.2329 103.031 26.1437 103.386 26.1437C103.745 26.1437 104.074 26.2329 104.372 26.4115C104.67 26.5863 104.906 26.8257 105.082 27.1297C105.258 27.4299 105.346 27.7605 105.346 28.1215V28.2868C105.346 28.663 105.26 29.0031 105.088 29.3071C104.92 29.6111 104.689 29.8486 104.395 30.0196C104.1 30.1906 103.772 30.2742 103.409 30.2704ZM103.392 29.8372C103.671 29.8372 103.923 29.7707 104.148 29.6377C104.374 29.5009 104.551 29.3147 104.681 29.0791C104.811 28.8435 104.876 28.5794 104.876 28.2868V28.1215C104.876 27.8441 104.809 27.5876 104.675 27.352C104.542 27.1126 104.36 26.9245 104.131 26.7877C103.906 26.6471 103.655 26.5768 103.38 26.5768C103.109 26.5768 102.861 26.6471 102.636 26.7877C102.41 26.9245 102.231 27.1126 102.097 27.352C101.967 27.5876 101.902 27.8441 101.902 28.1215V28.2868C101.902 28.5794 101.967 28.8435 102.097 29.0791C102.227 29.3147 102.404 29.5009 102.63 29.6377C102.859 29.7707 103.113 29.8372 103.392 29.8372Z" fill="#181D24"/>
<path d="M109.379 31V30.145H106.388V31H105.918L105.912 29.7118H106.268C106.608 29.1304 106.883 28.5376 107.093 27.9334C107.303 27.3292 107.408 26.7687 107.408 26.2519H109.327V29.7118H109.849V31H109.379ZM107.809 26.6851C107.736 27.2703 107.626 27.7795 107.477 28.2127C107.332 28.6421 107.097 29.1418 106.772 29.7118H108.858V26.6851H107.809Z" fill="#181D24"/>
<path d="M112.341 30.2419C111.974 30.2419 111.642 30.1526 111.344 29.974C111.05 29.7916 110.819 29.5465 110.651 29.2387C110.482 28.9309 110.398 28.5927 110.398 28.2241C110.398 27.8479 110.486 27.4983 110.662 27.1753C110.842 26.8523 111.08 26.5958 111.378 26.4058C111.68 26.2121 112.009 26.1152 112.364 26.1152C112.711 26.1152 113.028 26.1931 113.315 26.3489C113.601 26.5008 113.741 26.7782 113.733 27.181H113.28C113.292 26.9416 113.196 26.7763 112.994 26.6851C112.795 26.5939 112.576 26.5483 112.335 26.5483C112.068 26.5483 111.821 26.6281 111.596 26.7877C111.371 26.9435 111.191 27.1525 111.057 27.4147C110.924 27.6731 110.857 27.9486 110.857 28.2412C110.857 28.5224 110.92 28.7827 111.046 29.0221C111.176 29.2615 111.353 29.4534 111.579 29.5978C111.804 29.7384 112.06 29.8087 112.347 29.8087C112.614 29.8087 112.86 29.7479 113.086 29.6263C113.315 29.5047 113.496 29.3318 113.63 29.1076L114.014 29.3698C113.834 29.6586 113.594 29.8771 113.292 30.0253C112.994 30.1697 112.677 30.2419 112.341 30.2419Z" fill="#181D24"/>
<path d="M115.279 26.2348V27.8992C115.581 27.8992 115.801 27.884 115.938 27.8536C116.076 27.8232 116.204 27.7548 116.322 27.6484C116.391 27.5838 116.446 27.5002 116.488 27.3976C116.53 27.2912 116.574 27.1563 116.62 26.9929C116.662 26.8447 116.7 26.7231 116.734 26.6281C116.773 26.5293 116.82 26.4476 116.878 26.383C117 26.2462 117.172 26.1779 117.393 26.1779C117.554 26.1779 117.712 26.212 117.869 26.2804L117.691 26.6737C117.581 26.6319 117.476 26.611 117.376 26.611C117.292 26.611 117.235 26.6281 117.204 26.6623C117.174 26.6965 117.147 26.7459 117.124 26.8105C117.105 26.8713 117.08 26.9587 117.05 27.0727C117.027 27.1753 116.998 27.276 116.964 27.3748C116.914 27.5268 116.851 27.6636 116.775 27.7852C116.698 27.903 116.593 28.0056 116.459 28.093C116.624 28.1804 116.754 28.2773 116.849 28.3837C116.945 28.4901 117.01 28.5775 117.044 28.6459C117.078 28.7105 117.134 28.8302 117.21 29.005C117.306 29.2254 117.397 29.4116 117.485 29.5636C117.573 29.7156 117.67 29.8106 117.777 29.8486L117.634 30.259C117.5 30.2134 117.382 30.1336 117.279 30.0196C117.176 29.9018 117.09 29.7783 117.021 29.6491C116.956 29.5161 116.882 29.3508 116.798 29.1532C116.717 28.967 116.662 28.8511 116.631 28.8055C116.536 28.6687 116.408 28.5566 116.247 28.4692C116.087 28.378 115.925 28.3324 115.76 28.3324H115.279V30.1564H114.809V26.2348H115.279Z" fill="#181D24"/>
<path d="M119.815 26.1265H120.004L121.695 30.1507H121.196L120.658 28.891H119.162L118.635 30.1507H118.137L119.815 26.1265ZM119.987 27.2494L119.941 27.1012L119.907 26.9701L119.867 27.0955L119.821 27.2494L119.34 28.4692H120.474L119.987 27.2494Z" fill="#181D24"/>
<path d="M124.999 26.2348V30.1507H124.529V26.668H123.704C123.509 26.668 123.349 26.7402 123.223 26.8846C123.1 27.029 123.039 27.2152 123.039 27.4432C123.039 27.6712 123.104 27.8517 123.234 27.9847C123.364 28.1139 123.542 28.1785 123.767 28.1785H124.317V28.6174C124.179 28.6212 124.063 28.644 123.967 28.6858C123.876 28.7238 123.801 28.7713 123.744 28.8283C123.691 28.8853 123.627 28.9613 123.555 29.0563L122.89 29.9626C122.772 30.1222 122.611 30.202 122.409 30.202C122.256 30.202 122.145 30.164 122.077 30.088L122.283 29.7289C122.317 29.7631 122.357 29.7802 122.403 29.7802C122.43 29.7802 122.455 29.7726 122.478 29.7574C122.504 29.7384 122.535 29.708 122.569 29.6662C122.608 29.6168 122.776 29.3926 123.074 28.9936L123.286 28.7086C123.347 28.6326 123.402 28.5794 123.452 28.549C123.505 28.5148 123.587 28.4825 123.698 28.4521C123.488 28.4521 123.335 28.4388 123.24 28.4122C123.053 28.359 122.894 28.2355 122.764 28.0417C122.634 27.8479 122.569 27.6294 122.569 27.3862C122.569 27.1848 122.617 26.9967 122.713 26.8219C122.812 26.6433 122.946 26.5008 123.114 26.3944C123.286 26.2881 123.475 26.2348 123.681 26.2348H124.999Z" fill="#181D24"/>
<path d="M129.627 30.2704C129.249 30.2666 128.909 30.1792 128.608 30.0082C128.31 29.8334 128.075 29.5978 127.903 29.3014C127.735 29.0012 127.651 28.663 127.651 28.2868V28.1215C127.651 27.7605 127.737 27.4299 127.909 27.1297C128.084 26.8257 128.321 26.5863 128.619 26.4115C128.921 26.2329 129.249 26.1437 129.605 26.1437C129.964 26.1437 130.292 26.2329 130.59 26.4115C130.888 26.5863 131.125 26.8257 131.301 27.1297C131.476 27.4299 131.564 27.7605 131.564 28.1215V28.2868C131.564 28.663 131.478 29.0031 131.306 29.3071C131.138 29.6111 130.907 29.8486 130.613 30.0196C130.319 30.1906 129.99 30.2742 129.627 30.2704ZM129.61 29.8372C129.889 29.8372 130.141 29.7707 130.367 29.6377C130.592 29.5009 130.77 29.3147 130.899 29.0791C131.029 28.8435 131.094 28.5794 131.094 28.2868V28.1215C131.094 27.8441 131.027 27.5876 130.894 27.352C130.76 27.1126 130.579 26.9245 130.349 26.7877C130.124 26.6471 129.874 26.5768 129.599 26.5768C129.328 26.5768 129.079 26.6471 128.854 26.7877C128.629 26.9245 128.449 27.1126 128.315 27.352C128.185 27.5876 128.121 27.8441 128.121 28.1215V28.2868C128.121 28.5794 128.185 28.8435 128.315 29.0791C128.445 29.3147 128.623 29.5009 128.848 29.6377C129.077 29.7707 129.331 29.8372 129.61 29.8372Z" fill="#181D24"/>
<path d="M133.666 27.8593C133.915 27.8593 134.144 27.9106 134.354 28.0132C134.564 28.112 134.73 28.2526 134.852 28.435C134.979 28.6136 135.042 28.8207 135.042 29.0563C135.042 29.2957 134.973 29.5142 134.835 29.7118C134.698 29.9056 134.503 30.0424 134.251 30.1222C134.087 30.1754 133.863 30.202 133.58 30.202C133.263 30.202 133.019 30.1925 132.847 30.1735L132.498 30.1336V26.2291H134.772V26.6623H132.967V27.8593H133.666ZM133.638 29.7745C133.932 29.7745 134.161 29.7137 134.325 29.5921C134.49 29.4667 134.572 29.2881 134.572 29.0563C134.572 28.8321 134.497 28.6497 134.348 28.5091C134.199 28.3647 133.987 28.2925 133.712 28.2925H132.967V29.746L133.265 29.7631C133.426 29.7707 133.55 29.7745 133.638 29.7745Z" fill="#181D24"/>
<path d="M136.067 30.2419C135.96 30.2419 135.856 30.2172 135.757 30.1678C135.658 30.1222 135.578 30.0595 135.517 29.9797L135.855 29.7061C135.9 29.7669 135.967 29.7973 136.055 29.7973C136.143 29.7973 136.206 29.7669 136.244 29.7061C136.286 29.6415 136.324 29.5427 136.359 29.4097C136.42 29.1589 136.466 28.815 136.496 28.378C136.538 27.7928 136.559 27.0822 136.559 26.2463H138.954V30.1507H138.484V26.6794H136.995C136.991 27.143 136.976 27.6256 136.949 28.1272C136.922 28.6288 136.88 29.043 136.823 29.3698C136.773 29.67 136.678 29.8904 136.536 30.031C136.399 30.1716 136.242 30.2419 136.067 30.2419Z" fill="#181D24"/>
<path d="M141.416 26.1265H141.605L143.295 30.1507H142.797L142.258 28.891H140.763L140.236 30.1507H139.737L141.416 26.1265ZM141.588 27.2494L141.542 27.1012L141.508 26.9701L141.468 27.0955L141.422 27.2494L140.941 28.4692H142.075L141.588 27.2494Z" fill="#181D24"/>
<path d="M145.539 30.2419C145.173 30.2419 144.84 30.1526 144.542 29.974C144.248 29.7916 144.017 29.5465 143.849 29.2387C143.681 28.9309 143.597 28.5927 143.597 28.2241C143.597 27.8479 143.685 27.4983 143.861 27.1753C144.04 26.8523 144.279 26.5958 144.577 26.4058C144.879 26.2121 145.207 26.1152 145.562 26.1152C145.91 26.1152 146.227 26.1931 146.513 26.3489C146.8 26.5008 146.939 26.7782 146.932 27.181H146.479C146.491 26.9416 146.395 26.7763 146.193 26.6851C145.994 26.5939 145.774 26.5483 145.534 26.5483C145.266 26.5483 145.02 26.6281 144.795 26.7877C144.569 26.9435 144.39 27.1525 144.256 27.4147C144.122 27.6731 144.055 27.9486 144.055 28.2412C144.055 28.5224 144.118 28.7827 144.244 29.0221C144.374 29.2615 144.552 29.4534 144.777 29.5978C145.003 29.7384 145.259 29.8087 145.545 29.8087C145.813 29.8087 146.059 29.7479 146.284 29.6263C146.513 29.5047 146.695 29.3318 146.829 29.1076L147.212 29.3698C147.033 29.6586 146.792 29.8771 146.491 30.0253C146.193 30.1697 145.876 30.2419 145.539 30.2419Z" fill="#181D24"/>
<path d="M148.886 26.668H147.585V26.2348H150.656V26.668H149.356V30.1507H148.886V26.668Z" fill="#181D24"/>
<path d="M152.625 27.8593C152.873 27.8593 153.102 27.9106 153.312 28.0132C153.523 28.112 153.689 28.2526 153.811 28.435C153.937 28.6136 154 28.8207 154 29.0563C154 29.2957 153.931 29.5142 153.794 29.7118C153.656 29.9056 153.461 30.0424 153.209 30.1222C153.045 30.1754 152.822 30.202 152.539 30.202C152.218 30.202 151.974 30.1925 151.806 30.1735L151.456 30.1336V26.2519H151.926V27.8593H152.625ZM152.596 29.7688C152.89 29.7688 153.12 29.708 153.284 29.5864C153.448 29.4648 153.53 29.2881 153.53 29.0563C153.53 28.8321 153.456 28.6497 153.307 28.5091C153.158 28.3647 152.946 28.2925 152.671 28.2925H151.926V29.7403L152.224 29.7574C152.369 29.765 152.493 29.7688 152.596 29.7688Z" fill="#181D24"/>
<path d="M81.2032 17.5476C81.6991 17.5476 82.1568 17.6499 82.5764 17.8546C82.996 18.0517 83.3278 18.3321 83.5719 18.696C83.8237 19.0523 83.9495 19.4654 83.9495 19.9354C83.9495 20.413 83.8122 20.8488 83.5376 21.243C83.263 21.6296 82.8739 21.9025 82.3704 22.0617C82.0424 22.1678 81.5961 22.2209 81.0316 22.2209C80.3984 22.2209 79.9102 22.2019 79.5669 22.164L78.8689 22.0844V14.2956H83.4117V15.1597H79.8072V17.5476H81.2032ZM81.146 21.3681C81.7334 21.3681 82.1911 21.2468 82.5192 21.0042C82.8472 20.7541 83.0112 20.3978 83.0112 19.9354C83.0112 19.4881 82.8625 19.1243 82.565 18.8438C82.2674 18.5558 81.844 18.4117 81.2948 18.4117H79.8072V21.3112L80.4022 21.3453C80.7226 21.3605 80.9706 21.3681 81.146 21.3681Z" fill="#181D24"/>
<path d="M91.9698 22.1185H91.0315V16.9677L91.0887 16.2172L90.6424 16.8085L86.7404 21.4704L86.0767 22.1185H85.5961V14.2956H86.523L86.5115 20.2538L86.5001 20.5721L86.6603 20.2879L91.5693 14.1932H91.9698V22.1185Z" fill="#181D24"/>
<path d="M96.5238 17.5476C97.0197 17.5476 97.4774 17.6499 97.8969 17.8546C98.3165 18.0517 98.6484 18.3321 98.8925 18.696C99.1442 19.0523 99.2701 19.4654 99.2701 19.9354C99.2701 20.413 99.1328 20.8488 98.8582 21.243C98.5835 21.6296 98.1945 21.9025 97.691 22.0617C97.3629 22.1678 96.9167 22.2209 96.3521 22.2209C95.719 22.2209 95.2307 22.2019 94.8875 22.164L94.1894 22.0844V14.2956H98.7323V15.1597H95.1278V17.5476H96.5238ZM96.4666 21.3681C97.054 21.3681 97.5117 21.2468 97.8397 21.0042C98.1678 20.7541 98.3318 20.3978 98.3318 19.9354C98.3318 19.4881 98.183 19.1243 97.8855 18.8438C97.588 18.5558 97.1646 18.4117 96.6153 18.4117H95.1278V21.3112L95.7228 21.3453C96.0432 21.3605 96.2911 21.3681 96.4666 21.3681Z" fill="#181D24"/>
<path d="M101.203 22.3005C100.989 22.3005 100.783 22.2512 100.585 22.1527C100.386 22.0617 100.226 21.9366 100.104 21.7774L100.779 21.2316C100.871 21.3529 101.004 21.4136 101.18 21.4136C101.355 21.4136 101.481 21.3529 101.557 21.2316C101.641 21.1028 101.718 20.9057 101.786 20.6404C101.908 20.1401 102 19.454 102.061 18.5823C102.145 17.4149 102.187 15.9974 102.187 14.3297H106.97V22.1185H106.032V15.1939H103.056C103.049 16.1187 103.018 17.0814 102.965 18.082C102.912 19.0826 102.828 19.9089 102.713 20.5608C102.614 21.1596 102.423 21.5993 102.141 21.8798C101.866 22.1602 101.554 22.3005 101.203 22.3005Z" fill="#181D24"/>
<path d="M115.56 22.1185H114.621V16.9677L114.679 16.2172L114.232 16.8085L110.33 21.4704L109.667 22.1185H109.186V14.2956H110.113L110.101 20.2538L110.09 20.5721L110.25 20.2879L115.159 14.1932H115.56V22.1185Z" fill="#181D24"/>
<path d="M121.258 22.3573C120.503 22.3497 119.824 22.1754 119.221 21.8343C118.626 21.4856 118.157 21.0156 117.814 20.4243C117.478 19.8255 117.31 19.1508 117.31 18.4004V18.0706C117.31 17.3505 117.482 16.691 117.825 16.0921C118.176 15.4857 118.649 15.0081 119.244 14.6594C119.847 14.3032 120.503 14.125 121.212 14.125C121.929 14.125 122.585 14.3032 123.18 14.6594C123.775 15.0081 124.248 15.4857 124.599 16.0921C124.95 16.691 125.126 17.3505 125.126 18.0706V18.4004C125.126 19.1508 124.954 19.8293 124.611 20.4357C124.275 21.0421 123.814 21.5159 123.226 21.857C122.639 22.1981 121.983 22.3649 121.258 22.3573ZM121.224 21.4932C121.781 21.4932 122.284 21.3605 122.734 21.0952C123.184 20.8223 123.539 20.4509 123.798 19.9809C124.058 19.5109 124.187 18.9841 124.187 18.4004V18.0706C124.187 17.5172 124.054 17.0056 123.787 16.5356C123.52 16.058 123.157 15.6828 122.7 15.4099C122.25 15.1294 121.75 14.9892 121.201 14.9892C120.659 14.9892 120.163 15.1294 119.713 15.4099C119.263 15.6828 118.905 16.058 118.638 16.5356C118.378 17.0056 118.248 17.5172 118.248 18.0706V18.4004C118.248 18.9841 118.378 19.5109 118.638 19.9809C118.897 20.4509 119.252 20.8223 119.702 21.0952C120.159 21.3605 120.667 21.4932 121.224 21.4932Z" fill="#181D24"/>
<path d="M128.394 15.1711H125.797V14.3069H131.93V15.1711H129.333V22.1185H128.394V15.1711Z" fill="#181D24"/>
<path d="M133.413 14.3069H138.539V15.1711H134.328V17.5476H137.429V18.4117H134.328V21.2544H138.757V22.1185H133.413V14.3069Z" fill="#181D24"/>
<path d="M141.302 14.3069V17.6272C141.904 17.6272 142.343 17.5968 142.618 17.5362C142.892 17.4756 143.148 17.3391 143.384 17.1269C143.522 16.998 143.632 16.8312 143.716 16.6266C143.8 16.4143 143.888 16.1452 143.979 15.8192C144.063 15.5236 144.14 15.281 144.208 15.0915C144.285 14.8944 144.38 14.7315 144.494 14.6026C144.738 14.3297 145.082 14.1932 145.524 14.1932C145.845 14.1932 146.161 14.2615 146.474 14.3979L146.119 15.1825C145.898 15.0991 145.688 15.0574 145.49 15.0574C145.322 15.0574 145.208 15.0915 145.147 15.1597C145.086 15.228 145.032 15.3265 144.986 15.4554C144.948 15.5767 144.899 15.751 144.838 15.9784C144.792 16.1831 144.735 16.384 144.666 16.5811C144.567 16.8843 144.441 17.1572 144.288 17.3998C144.136 17.6347 143.926 17.8394 143.659 18.0138C143.987 18.1881 144.246 18.3814 144.437 18.5937C144.628 18.8059 144.758 18.9803 144.826 19.1167C144.895 19.2456 145.005 19.4844 145.158 19.8331C145.349 20.2727 145.532 20.6442 145.707 20.9474C145.883 21.2506 146.077 21.4401 146.291 21.5159L146.005 22.3346C145.738 22.2436 145.501 22.0844 145.295 21.857C145.089 21.622 144.918 21.3757 144.78 21.1179C144.651 20.8526 144.502 20.5229 144.334 20.1287C144.174 19.7573 144.063 19.5261 144.002 19.4351C143.812 19.1622 143.556 18.9386 143.236 18.7642C142.915 18.5823 142.591 18.4913 142.263 18.4913H141.302V22.1299H140.363V14.3069H141.302Z" fill="#181D24"/>
<path d="M150.247 14.0909H150.624L154 22.1185H153.004L151.929 19.6056H148.942L147.889 22.1185H146.894L150.247 14.0909ZM150.59 16.3309L150.498 16.0353L150.43 15.7738L150.35 16.0239L150.258 16.3309L149.297 18.7642H151.563L150.59 16.3309Z" fill="#181D24"/>
<path d="M78.8689 0.405672H80.0127V8.93877H84.8113V0.405672H85.9552V8.93877H87.2664L87.2525 12.2121H86.1086V10.0019L78.8828 9.98792L78.8689 0.405672Z" fill="#181D24"/>
<path d="M96.9814 9.98792H95.8375V3.65105L95.9073 2.72779L95.3633 3.45521L90.6065 9.19057L89.7975 9.98792H89.2116V0.363706H90.3415L90.3275 7.69378L90.3136 8.08546L90.5089 7.73574L96.4932 0.237808H96.9814V9.98792Z" fill="#181D24"/>
<path d="M103.593 9.58225C102.645 9.50764 101.835 9.26051 101.166 8.84085C100.506 8.41186 100.003 7.87563 99.6593 7.23215C99.3246 6.58867 99.1572 5.91255 99.1572 5.20379C99.1572 4.49503 99.3246 3.82357 99.6593 3.18942C100.003 2.54594 100.506 2.01437 101.166 1.59471C101.835 1.16572 102.645 0.913927 103.593 0.839321V0H104.653V0.839321C105.602 0.913927 106.411 1.16572 107.08 1.59471C107.75 2.01437 108.252 2.54594 108.587 3.18942C108.931 3.82357 109.103 4.49503 109.103 5.20379C109.103 5.91255 108.931 6.58867 108.587 7.23215C108.252 7.87563 107.75 8.41186 107.08 8.84085C106.411 9.26051 105.602 9.50764 104.653 9.58225V10.4356H103.593V9.58225ZM103.593 1.91645C102.877 1.98173 102.263 2.17757 101.752 2.50397C101.24 2.82105 100.854 3.2174 100.594 3.69301C100.343 4.16863 100.217 4.67222 100.217 5.20379C100.217 5.73536 100.343 6.23895 100.594 6.71457C100.854 7.19018 101.24 7.59119 101.752 7.91759C102.263 8.23467 102.877 8.43051 103.593 8.50512V1.91645ZM104.653 8.50512C105.379 8.43051 105.997 8.23467 106.508 7.91759C107.02 7.59119 107.401 7.19018 107.652 6.71457C107.913 6.23895 108.043 5.73536 108.043 5.20379C108.043 4.67222 107.913 4.16863 107.652 3.69301C107.401 3.2174 107.02 2.82105 106.508 2.50397C105.997 2.17757 105.379 1.98173 104.653 1.91645V8.50512Z" fill="#181D24"/>
<path d="M114.179 0.377695C114.728 0.377695 115.211 0.508256 115.63 0.769378C116.058 1.0305 116.388 1.39421 116.62 1.86049C116.853 2.32678 116.969 2.85369 116.969 3.44122C116.969 4.40177 116.653 5.15716 116.021 5.70738C115.388 6.2576 114.463 6.53272 113.245 6.53272L112.212 6.50474V9.98792H111.069V0.377695H114.179ZM113.412 5.46958C114.202 5.46958 114.802 5.29239 115.211 4.93801C115.621 4.5743 115.825 4.06138 115.825 3.39925C115.825 2.78375 115.658 2.30347 115.323 1.95842C114.988 1.61336 114.547 1.44083 113.998 1.44083H112.212V5.42761L112.701 5.4416C113.054 5.46025 113.291 5.46958 113.412 5.46958Z" fill="#181D24"/>
<path d="M122.655 10.2817C121.734 10.2724 120.907 10.0579 120.172 9.6382C119.447 9.20922 118.875 8.63102 118.456 7.90361C118.047 7.16687 117.842 6.33687 117.842 5.41362V5.00795C117.842 4.122 118.052 3.31066 118.47 2.57392C118.898 1.82785 119.474 1.24033 120.2 0.811344C120.934 0.373032 121.734 0.153876 122.599 0.153876C123.473 0.153876 124.273 0.373032 124.998 0.811344C125.724 1.24033 126.3 1.82785 126.728 2.57392C127.156 3.31066 127.37 4.122 127.37 5.00795V5.41362C127.37 6.33687 127.161 7.17153 126.742 7.91759C126.333 8.66366 125.77 9.24652 125.054 9.66618C124.338 10.0858 123.538 10.291 122.655 10.2817ZM122.613 9.21854C123.292 9.21854 123.906 9.05534 124.454 8.72894C125.003 8.39321 125.435 7.93625 125.752 7.35805C126.068 6.77985 126.226 6.13171 126.226 5.41362V5.00795C126.226 4.32717 126.063 3.69768 125.738 3.11948C125.412 2.53195 124.97 2.07033 124.413 1.7346C123.864 1.38954 123.255 1.21702 122.585 1.21702C121.925 1.21702 121.32 1.38954 120.772 1.7346C120.223 2.07033 119.786 2.53195 119.46 3.11948C119.144 3.69768 118.986 4.32717 118.986 5.00795V5.41362C118.986 6.13171 119.144 6.77985 119.46 7.35805C119.777 7.93625 120.209 8.39321 120.758 8.72894C121.316 9.05534 121.934 9.21854 122.613 9.21854Z" fill="#181D24"/>
<path d="M134.776 4.97997C135.669 5.52087 136.115 6.29491 136.115 7.30209C136.115 7.88962 135.948 8.42585 135.613 8.91079C135.278 9.38641 134.804 9.72214 134.19 9.91798C133.79 10.0485 133.246 10.1138 132.558 10.1138C131.6 10.1138 130.912 10.0905 130.493 10.0439L129.642 9.94595V0.223819H132.795C133.26 0.223819 133.651 0.284437 133.967 0.405672C134.506 0.610839 134.929 0.927916 135.236 1.3569C135.543 1.78589 135.696 2.28016 135.696 2.8397C135.696 3.69768 135.32 4.31784 134.567 4.7002C134.511 4.72818 134.413 4.76548 134.274 4.81211C134.329 4.81211 134.408 4.83076 134.511 4.86806C134.622 4.90537 134.711 4.94267 134.776 4.97997ZM130.786 1.31494V4.36447H132.781C133.311 4.36447 133.739 4.22925 134.064 3.9588C134.39 3.68835 134.553 3.29667 134.553 2.78375C134.553 2.33611 134.418 1.99106 134.148 1.74859C133.878 1.49679 133.488 1.35224 132.976 1.31494H130.786ZM132.697 9.05068C133.423 9.05068 133.985 8.90147 134.385 8.60304C134.785 8.30461 134.985 7.87097 134.985 7.30209C134.985 6.75187 134.799 6.30423 134.427 5.95918C134.064 5.61413 133.548 5.4416 132.879 5.4416H130.786V8.98073L131.791 9.0227L132.697 9.05068Z" fill="#181D24"/>
<path d="M141.38 0.11191H141.841L145.956 9.98792H144.742L143.431 6.89642H139.79L138.507 9.98792H137.293L141.38 0.11191ZM141.799 2.86768L141.687 2.50397L141.604 2.18223L141.506 2.48999L141.394 2.86768L140.223 5.86126H142.985L141.799 2.86768Z" fill="#181D24"/>
<path d="M154 0.377695V9.98792H152.856V1.44083H150.847C150.373 1.44083 149.982 1.61802 149.676 1.9724C149.378 2.32678 149.229 2.78375 149.229 3.3433C149.229 3.90284 149.387 4.34582 149.703 4.67222C150.02 4.9893 150.452 5.14784 151.001 5.14784H152.34V6.22496C152.005 6.23429 151.721 6.29024 151.489 6.39283C151.266 6.48609 151.084 6.60266 150.945 6.74255C150.815 6.88243 150.661 7.06895 150.485 7.30209L148.867 9.52629C148.578 9.91798 148.188 10.1138 147.695 10.1138C147.323 10.1138 147.053 10.0206 146.886 9.83404L147.388 8.95276C147.472 9.03669 147.569 9.07866 147.681 9.07866C147.746 9.07866 147.806 9.06 147.862 9.0227C147.927 8.97607 148.002 8.90147 148.085 8.79888C148.178 8.67765 148.588 8.12742 149.313 7.14822L149.829 6.44878C149.978 6.26227 150.113 6.13171 150.234 6.0571C150.364 5.97317 150.564 5.8939 150.833 5.81929C150.322 5.81929 149.95 5.78665 149.717 5.72137C149.262 5.59081 148.876 5.28772 148.56 4.81211C148.243 4.33649 148.085 3.80026 148.085 3.20341C148.085 2.70914 148.202 2.24752 148.434 1.81853C148.676 1.38022 149.001 1.0305 149.411 0.769378C149.829 0.508256 150.289 0.377695 150.792 0.377695H154Z" fill="#181D24"/>
</svg>
