<svg width="145" height="136" viewBox="0 0 145 136" fill="none" xmlns="http://www.w3.org/2000/svg">
<mask id="mask0" style="mask-type:alpha" maskUnits="userSpaceOnUse" x="0" y="0" width="145" height="136">
<g opacity="0.2">
<path d="M114.082 25.4883C114.082 15.634 107.633 0 90.3295 0C83.22 0 77.2396 3.35172 72.5018 9.97698C67.7641 3.35172 61.7834 0 54.6742 0C37.3701 0 30.9219 15.634 30.9219 25.4883C30.9219 42.4786 44.182 53.1063 62.2972 68.5967C64.959 70.8726 67.7114 73.2263 70.646 75.7723C71.1784 76.2342 71.84 76.465 72.5018 76.465C73.1637 76.465 73.8253 76.2342 74.3577 75.7723C77.2922 73.2263 80.0447 70.8726 82.7065 68.5967C101.672 52.3796 114.082 42.1195 114.082 25.4883V25.4883ZM72.5018 69.8879C70.2388 67.9349 68.0805 66.0892 65.9782 64.2915C47.0257 48.0857 36.5859 39.1586 36.5859 25.4883C36.5859 16.2154 42.6525 5.66407 54.6742 5.66407C60.948 5.66407 65.9666 9.26642 70.017 16.6767C70.5135 17.5852 71.4665 18.1505 72.5018 18.1505C73.5372 18.1505 74.4902 17.5852 74.9867 16.6767C79.037 9.26642 84.0557 5.66407 90.3295 5.66407C102.183 5.66407 108.418 16.0588 108.418 25.4883C108.418 39.1586 97.978 48.0857 79.0254 64.2918C76.9232 66.0893 74.7649 67.9349 72.5018 69.8879V69.8879Z" fill="#181D24"/>
<path d="M20.3504 111.052L33.9844 117.868V133.11C33.9844 134.673 35.2526 135.942 36.8165 135.942H66.8361C68.3999 135.942 69.6681 134.673 69.6681 133.11V96.1373C69.6681 87.4605 63.1592 80.2652 54.5493 79.402L54.3176 79.3771C49.3341 78.8775 40.51 75.4688 37.0258 71.9849L30.6656 65.6272C28.5254 63.4874 25.6812 62.3087 22.6563 62.3087V39.6524C22.6563 33.406 17.5745 28.3242 11.3281 28.3242C5.08181 28.3242 0 33.406 0 39.6524V78.1227C0 92.0603 7.8725 104.812 20.3504 111.052ZM5.66407 39.6524C5.66407 36.5292 8.20498 33.9883 11.3281 33.9883C14.4513 33.9883 16.9922 36.5292 16.9922 39.6524V63.8269C13.5383 65.8241 11.3281 69.5476 11.3281 73.6368C11.3281 76.6617 12.5068 79.5059 14.647 81.6458L29.1499 96.1515C30.2555 97.2577 32.0487 97.2577 33.1549 96.1518C34.2608 95.0462 34.2611 93.2529 33.1552 92.1467L18.6524 77.6407C17.5816 76.5705 16.9922 75.1485 16.9922 73.6368C16.9922 71.2398 18.5093 69.0931 20.7679 68.2953C20.7682 68.2953 20.7687 68.295 20.769 68.2947C20.7696 68.2944 20.7704 68.2945 20.771 68.2942C22.7245 67.6009 25.0417 68.0138 26.6608 69.6332L33.021 75.9908C39.5873 82.5572 53.9336 85.0278 53.9622 85.0358C59.6869 85.6095 64.0037 90.3824 64.0037 96.1373V130.278H39.6482V116.117C39.6482 115.045 39.0419 114.064 38.0827 113.584L22.8834 105.986C12.2624 100.674 5.66407 89.9975 5.66407 78.1227V39.6524Z" fill="#181D24"/>
<path d="M129.992 107.051C131.556 107.051 132.824 105.783 132.824 104.219C132.824 102.655 131.556 101.387 129.992 101.387C128.428 101.387 127.16 102.655 127.16 104.219C127.16 105.783 128.428 107.051 129.992 107.051Z" fill="#181D24"/>
<path d="M133.672 28.3242C127.426 28.3242 122.344 33.406 122.344 39.6524V62.3087C119.319 62.3087 116.475 63.4874 114.335 65.6272L107.974 71.9854C104.49 75.4691 95.6661 78.8778 90.6604 79.3793L90.473 79.3997C81.8409 80.2652 75.332 87.4608 75.332 96.1373V133.11C75.332 134.673 76.6002 135.942 78.1641 135.942H108.184C109.748 135.942 111.016 134.673 111.016 133.11V117.868L120.285 113.234C121.684 112.535 122.251 110.834 121.552 109.435C120.852 108.036 119.151 107.468 117.752 108.168L106.917 113.584C105.958 114.064 105.352 115.045 105.352 116.117V130.278H80.9961V96.1373C80.9961 90.3824 85.313 85.6095 91.0597 85.0335L91.2472 85.0131C97.3902 84.3971 107.561 80.4079 111.978 75.9911L118.34 69.6329C119.963 68.0087 122.285 67.6046 124.229 68.2942C124.229 68.2945 124.23 68.2944 124.231 68.2947C124.231 68.2947 124.232 68.295 124.232 68.2953C126.491 69.0931 128.008 71.2398 128.008 73.6368C128.008 75.1485 127.419 76.5705 126.348 77.6413L111.845 92.147C110.739 93.2529 110.74 95.0462 111.845 96.1521C112.951 97.258 114.745 97.258 115.851 96.1518L130.353 81.6464C132.493 79.5059 133.672 76.6617 133.672 73.6368C133.672 69.5476 131.462 65.8241 128.008 63.8269V39.6524C128.008 36.5292 130.549 33.9883 133.672 33.9883C136.795 33.9883 139.336 36.5292 139.336 39.6524V78.1227C139.336 83.3042 138.029 88.4484 135.554 92.9989C134.807 94.3733 135.315 96.0926 136.69 96.8397C138.064 97.5868 139.784 97.079 140.531 95.7043C143.455 90.326 145 84.2465 145 78.1227V39.6524C145 33.406 139.918 28.3242 133.672 28.3242V28.3242Z" fill="#181D24"/>
</g>
</mask>
<g mask="url(#mask0)">
<rect x="-215" y="-45" width="367" height="199" fill="#C4C4C4"/>
</g>
</svg>
