<svg width="153" height="148" viewBox="0 0 153 148" fill="none" xmlns="http://www.w3.org/2000/svg">
<g opacity="0.2">
<mask id="mask0" style="mask-type:alpha" maskUnits="userSpaceOnUse" x="0" y="0" width="153" height="148">
<path d="M69.3552 39.231C69.7613 39.575 70.275 39.762 70.8036 39.762C70.867 39.762 70.9309 39.7593 70.9946 39.754C71.5886 39.7032 72.1382 39.4178 72.5213 38.9606L86.8203 21.8992C87.6154 20.9504 87.4908 19.537 86.542 18.7421C85.5939 17.9466 84.1801 18.0712 83.3849 19.0203L70.5326 34.3547L64.6534 29.3756C63.7091 28.5753 62.2944 28.6928 61.4948 29.6374C60.6948 30.582 60.8122 31.9963 61.7568 32.796L69.3552 39.231Z" fill="#181D24"/>
<path d="M75.0247 59.6983C82.6744 59.6983 90.3235 56.7877 96.1471 50.9665C101.786 45.3302 104.891 37.8341 104.891 29.8592C104.891 21.8847 101.786 14.3868 96.1471 8.74546C90.0325 2.63321 81.5846 -0.530199 72.9732 0.0728383C64.3239 0.676175 56.378 4.97842 51.1736 11.8766C50.4283 12.8648 50.625 14.2699 51.6129 15.0155C52.6017 15.7614 54.0065 15.5644 54.7521 14.5762C59.1751 8.71379 65.9301 5.05731 73.2855 4.54452C80.6017 4.03561 87.7817 6.72089 92.9777 11.9151C97.7701 16.709 100.409 23.0818 100.409 29.8592C100.409 36.6364 97.7701 43.0068 92.9786 47.7965C83.0787 57.6922 66.9715 57.6916 57.0716 47.7965C50.5825 41.3098 48.1013 31.7879 50.5966 22.9458C50.9327 21.7547 50.2398 20.5163 49.0483 20.1802C47.859 19.8443 46.6188 20.5373 46.2827 21.7284C43.347 32.1307 46.2668 43.3341 53.9028 50.9665C59.7261 56.788 67.3755 59.6983 75.0247 59.6983V59.6983Z" fill="#181D24"/>
<path d="M143.886 111.143C143.142 110.719 142.374 110.282 141.585 109.81L135.725 106.296C138.451 103.4 140.492 99.8831 141.295 96.3599C141.54 95.296 141.666 94.2501 141.666 93.255V78.4211C141.666 71.6736 136.589 65.5834 128.727 62.9089C121.854 60.5721 115.031 61.6568 111.359 65.5774C107.593 66.2409 102.313 69.2262 102.492 80.7879C102.495 80.8895 102.495 80.9731 102.495 81.0389V93.255C102.495 94.2501 102.621 95.296 102.866 96.3509C103.667 99.8771 105.705 103.4 108.436 106.299L102.675 109.753C102.633 109.774 102.591 109.801 102.549 109.825C101.772 110.291 101.01 110.725 100.275 111.143C98.0728 112.395 95.9272 113.611 94.2717 115.315L90.1419 112.837C92.8702 109.939 94.9112 106.421 95.715 102.901C95.9541 101.852 96.0766 100.806 96.0766 99.7934V93.2012C96.0766 93.1997 96.0769 93.1982 96.0769 93.1968V84.9583C96.0769 78.2134 91.0022 72.1269 83.1481 69.4524C76.2762 67.1119 69.4509 68.1946 65.7783 72.1137C62.0107 72.7754 56.7289 75.7604 56.9117 87.3209C56.9135 87.4252 56.915 87.5106 56.915 87.5749V90.4191V94.4671V99.7934C56.915 100.759 57.0346 101.799 57.2766 102.901C58.0805 106.421 60.1215 109.939 62.8528 112.837L58.7289 115.315C57.0704 113.611 54.9248 112.392 52.7195 111.14C51.9754 110.716 51.2074 110.282 50.4215 109.81L50.3617 109.774C50.3557 109.771 50.35 109.767 50.3441 109.764L44.5602 106.299C47.2888 103.401 49.3292 99.8843 50.1331 96.3602C50.3737 95.319 50.4956 94.2746 50.4956 93.2562V86.6518V84.1368V78.4217C50.4956 71.6757 45.4203 65.5879 37.5652 62.9125C30.6919 60.5712 23.8639 61.655 20.1886 65.5772C16.4237 66.2391 11.1472 69.2244 11.3304 80.7837C11.3322 80.8883 11.3337 80.9737 11.3337 81.038V83.8745V87.9218V93.2562C11.3337 94.2746 11.4556 95.3187 11.6947 96.3542C12.4994 99.8813 14.5401 103.4 17.2681 106.297L11.4054 109.81C10.6207 110.281 9.8536 110.717 9.1113 111.138C4.42596 113.801 0 116.316 0 123.645V136.812C0 137.258 0 138.617 0.981057 139.581C1.80194 140.387 2.80481 140.475 3.56623 140.475C3.67919 140.475 3.78676 140.473 3.88747 140.471C3.99415 140.469 4.10591 140.467 4.22306 140.467H26.3293C26.3307 140.467 26.3322 140.467 26.3337 140.467C26.3352 140.467 26.3367 140.467 26.3382 140.467H30.9124H30.9136H35.4743C35.4755 140.467 35.4767 140.467 35.4779 140.467C35.4791 140.467 35.4803 140.467 35.4815 140.467H45.5798V143.348C45.5798 143.796 45.5798 145.159 46.566 146.124C47.3878 146.931 48.3888 147.02 49.1508 147.02C49.2644 147.02 49.372 147.017 49.4736 147.017C49.5782 147.014 49.6887 147.011 49.8053 147.011H52.3872C53.6243 147.011 54.6284 146.007 54.6284 144.77C54.6284 143.533 53.6243 142.529 52.3872 142.529H50.0623V140.467V135.985V130.181C50.0623 125.648 52.0405 124.345 56.9144 121.581C56.9891 121.539 57.0638 121.494 57.1415 121.453C57.4523 121.276 57.7661 121.094 58.0888 120.909L61.8272 123.329L65.6791 125.824C65.712 125.842 65.7448 125.863 65.7777 125.881C66.0467 126.037 66.2827 126.201 66.5128 126.356C66.982 126.676 67.8785 127.289 68.9632 127.289C69.4115 127.289 69.8926 127.184 70.3886 126.912L70.6964 128.119L66.3275 137.583C66.3246 137.589 66.3216 137.598 66.3186 137.604C65.945 138.375 66.0048 139.227 66.468 139.929L67.995 142.529H62.7386C61.5015 142.529 60.4974 143.533 60.4974 144.77C60.4974 146.007 61.5015 147.011 62.7386 147.011H71.9097H71.9157H103.188C103.305 147.011 103.415 147.014 103.52 147.017C103.621 147.017 103.729 147.02 103.843 147.02C104.608 147.02 105.612 146.931 106.436 146.124C107.42 145.159 107.42 143.796 107.42 143.348V140.467H126.64H126.646H148.778C148.891 140.467 149.005 140.47 149.109 140.47C149.211 140.473 149.318 140.476 149.432 140.476C150.194 140.476 151.195 140.386 152.017 139.58C153 138.614 153 137.258 153 136.812V123.646C153.001 116.319 148.575 113.803 143.886 111.143V111.143ZM45.0318 111.804L39.334 115.489C39.0988 115.628 38.8896 115.763 38.7041 115.888L37.4792 114.59C37.4585 114.567 37.4361 114.545 37.4146 114.522L35.3727 112.359C35.593 112.285 35.8159 112.206 36.0427 112.121C37.7765 111.476 39.4601 110.545 41.0305 109.407L45.0318 111.804ZM21.5309 69.9176C22.1549 69.8627 22.7275 69.5492 23.1097 69.0531C25.3847 66.1013 30.7346 65.3211 36.1204 67.1553C40.6838 68.7098 46.0131 72.5931 46.0131 78.4217V84.1371V84.4109H45.0694C42.8605 84.4109 41.4339 83.1797 39.2892 81.171C36.8749 78.91 33.8705 76.0959 28.6529 76.0959H24.6379C19.7622 76.0959 18.9479 80.0581 18.4617 82.4255C17.9023 85.1475 17.6372 85.6812 15.8535 85.6812H15.8161V83.8751V81.0386C15.8161 80.9564 15.8146 80.847 15.8123 80.7132C15.7047 73.893 17.6282 70.261 21.5309 69.9176V69.9176ZM16.0639 95.3513C15.8995 94.6404 15.8164 93.9355 15.8164 93.2562V90.163H15.8538C21.4479 90.163 22.3614 85.7162 22.8524 83.3273C23.4175 80.5781 23.6517 80.5781 24.6382 80.5781H28.6535C32.0996 80.5781 34.0119 82.3687 36.2256 84.4422C38.4531 86.5284 40.9776 88.893 45.07 88.893H46.0137V93.2562C46.0137 93.9355 45.9307 94.6404 45.7648 95.3573C44.5767 100.566 39.7246 105.967 34.4756 107.922C33.1291 108.426 31.9977 108.661 30.9154 108.661C29.833 108.661 28.7017 108.426 27.3521 107.921C22.1056 105.967 17.2532 100.566 16.0639 95.3513V95.3513ZM33.3162 116.71L32.5882 119.558H29.2258L28.5026 116.722L30.9148 114.167L33.3162 116.71ZM20.7988 109.407C22.3686 110.545 24.0513 111.475 25.7839 112.121C26.0116 112.206 26.2357 112.285 26.4569 112.359L23.1264 115.887C22.9399 115.763 22.7296 115.627 22.4932 115.488L16.7978 111.805L20.7988 109.407ZM20.8577 133.348L22.4107 135.985H4.48244V123.645C4.48244 119.105 6.458 117.802 11.3262 115.035C11.7108 114.817 12.1023 114.594 12.5015 114.364L20.0999 119.278C20.1291 119.297 20.1584 119.315 20.1883 119.333C20.457 119.489 20.6936 119.652 20.9225 119.808C21.4326 120.158 22.3181 120.765 23.387 120.765C23.8337 120.765 24.3128 120.657 24.8097 120.382L25.1157 121.582L20.7486 131.044C20.3736 131.792 20.4151 132.641 20.8577 133.348V133.348ZM34.1995 135.985H30.916C30.9157 135.985 30.9154 135.985 30.9148 135.985H27.613L25.2541 131.98L28.9183 124.041H32.8948L36.5591 131.98L34.1995 135.985ZM45.5804 130.181V135.985H39.4018L40.9552 133.348C41.3971 132.643 41.439 131.795 41.0645 131.046L36.6971 121.583L37.0061 120.375C37.5082 120.656 37.9923 120.766 38.4438 120.766C39.5169 120.766 40.4062 120.155 40.9181 119.803C41.1452 119.647 41.3798 119.486 41.6454 119.33C41.6738 119.314 41.7016 119.297 41.7291 119.279L49.3278 114.365C49.7273 114.595 50.1185 114.818 50.5018 115.037C52.262 116.038 53.6425 116.845 54.6914 117.688C50.0061 120.347 45.5804 122.863 45.5804 130.181V130.181ZM136.194 111.806L130.508 115.488C130.269 115.628 130.056 115.766 129.868 115.891L128.643 114.591C128.619 114.565 128.589 114.535 128.562 114.508L126.536 112.359C126.757 112.287 126.979 112.207 127.206 112.123C128.939 111.475 130.621 110.545 132.193 109.407L136.194 111.806ZM112.7 69.9165C113.325 69.8627 113.899 69.5489 114.281 69.0528C116.552 66.1034 121.898 65.3205 127.283 67.1523C131.849 68.7092 137.184 72.591 137.184 78.4211V84.4097H136.233C134.025 84.4097 132.6 83.1815 130.457 81.1734C128.042 78.9112 125.039 76.0962 119.816 76.0962H115.799C110.922 76.0962 110.11 80.0587 109.626 82.4284C109.067 85.1478 108.804 85.6797 107.026 85.6797H106.978V81.0389C106.978 80.9582 106.978 80.8476 106.975 80.7161C106.87 73.8939 108.795 70.2601 112.7 69.9165V69.9165ZM107.235 95.3528C107.065 94.6177 106.978 93.9124 106.978 93.255V90.1621H107.026C112.614 90.1621 113.525 85.7156 114.015 83.3279C114.58 80.5787 114.813 80.5787 115.799 80.5787H119.816C123.267 80.5787 125.18 82.3687 127.391 84.4426C129.617 86.5284 132.139 88.8921 136.233 88.8921H137.184V93.255C137.184 93.9124 137.097 94.6177 136.927 95.3588C135.74 100.567 130.887 105.967 125.634 107.925C124.298 108.427 123.168 108.66 122.078 108.66C120.993 108.66 119.866 108.427 118.522 107.922C113.268 105.964 108.415 100.564 107.235 95.3528V95.3528ZM124.48 116.713L123.757 119.558H120.389L119.666 116.722L122.078 114.167L124.48 116.713ZM111.965 109.41C113.534 110.545 115.217 111.475 116.95 112.12C117.177 112.204 117.401 112.284 117.622 112.359L114.29 115.885C114.102 115.763 113.893 115.628 113.657 115.488L107.967 111.803L111.965 109.41ZM90.617 118.348L84.9303 122.032C84.6912 122.17 84.479 122.307 84.2908 122.43L80.9558 118.904C81.177 118.829 81.3981 118.751 81.6252 118.667C83.3614 118.019 85.0438 117.087 86.6157 115.945L90.617 118.348ZM67.12 76.4545C67.7443 76.3996 68.3172 76.0861 68.6994 75.5897C70.9717 72.6409 76.318 71.8621 81.7032 73.6957C86.266 75.2497 91.5945 79.1315 91.5945 84.9586V90.669C91.5945 90.6705 91.5942 90.6719 91.5942 90.6731V90.9558H90.6508C88.443 90.9558 87.0182 89.7256 84.8759 87.718C82.4619 85.4562 79.4578 82.6409 74.2346 82.6409H70.2195C65.3423 82.6409 64.5292 86.6049 64.0436 88.9731C63.4857 91.6927 63.2215 92.2259 61.4438 92.2259H61.3978V90.4191V87.5749C61.3978 87.4927 61.3963 87.3833 61.3939 87.25C61.2857 80.4299 63.2123 76.7979 67.12 76.4545V76.4545ZM61.6515 101.921C61.4841 101.153 61.3975 100.439 61.3975 99.7934V96.7083H61.4435C67.0328 96.7083 67.9445 92.2623 68.4346 89.8735C68.9985 87.123 69.2331 87.123 70.2195 87.123H74.2346C77.6861 87.123 79.5977 88.9142 81.8111 90.9884C84.0368 93.0739 86.5595 95.438 90.6511 95.438H91.5945V99.7931C91.5945 100.471 91.5108 101.18 91.3464 101.9C90.1571 107.102 85.3041 112.505 80.0626 114.466C78.7 114.971 77.5674 115.207 76.4976 115.207C75.4338 115.207 74.2982 114.971 72.9356 114.466C67.6878 112.506 62.8348 107.103 61.6515 101.921V101.921ZM78.8999 123.252L78.1767 126.096H74.8059L74.0858 123.26L76.4973 120.708L78.8999 123.252ZM68.7038 122.427C68.5186 122.304 68.3094 122.17 68.0703 122.032L62.3836 118.348L66.379 115.945C67.9538 117.087 69.6392 118.019 71.3754 118.67C71.5995 118.751 71.8206 118.829 72.0388 118.901L68.7038 122.427ZM79.7814 142.529H73.1952L70.8375 138.516L74.4981 130.579H78.4845L82.1422 138.522L79.7814 142.529ZM102.938 142.529H84.9841L86.538 139.893C86.9713 139.194 87.0191 138.351 86.6545 137.604C86.6515 137.598 86.6485 137.589 86.6456 137.583L82.2856 128.119L82.5934 126.918C83.0925 127.196 83.5766 127.307 84.0248 127.307C85.0916 127.307 85.9762 126.703 86.4872 126.356C86.7173 126.198 86.9533 126.037 87.2223 125.881C87.2552 125.863 87.288 125.842 87.3209 125.824L94.9112 120.909C95.2279 121.094 95.5447 121.273 95.8525 121.45C95.9332 121.494 96.0139 121.542 96.0945 121.587C100.962 124.351 102.938 125.654 102.938 130.181V142.529ZM112.049 133.385L113.579 135.985H107.42V130.181C107.42 122.863 102.995 120.35 98.3089 117.687C98.3089 117.687 98.3059 117.687 98.3059 117.684C99.3518 116.845 100.732 116.035 102.489 115.04C102.875 114.819 103.269 114.597 103.67 114.364L111.263 119.277C111.29 119.298 111.32 119.316 111.35 119.334C111.619 119.489 111.855 119.651 112.085 119.806C112.557 120.129 113.46 120.747 114.553 120.747C114.998 120.747 115.477 120.643 115.97 120.374L116.277 121.581L111.912 131.045C111.909 131.048 111.909 131.048 111.909 131.051C111.526 131.822 111.58 132.677 112.049 133.385V133.385ZM125.362 135.985H118.779L116.421 131.974L120.082 124.04H124.065L127.726 131.971L125.362 135.985ZM148.518 135.985H130.564L132.115 133.349C132.534 132.686 132.6 131.906 132.295 131.182C132.277 131.138 132.256 131.09 132.235 131.045L127.866 121.581L128.174 120.377C128.673 120.655 129.157 120.765 129.608 120.765C130.678 120.765 131.569 120.156 132.08 119.806C132.307 119.651 132.543 119.489 132.812 119.334C132.842 119.316 132.871 119.298 132.901 119.277L140.492 114.364C140.892 114.597 141.286 114.819 141.672 115.04C146.543 117.804 148.518 119.107 148.518 123.646V135.985Z" fill="#181D24"/>
</mask>
<g mask="url(#mask0)">
<rect x="-215" y="-34" width="378" height="223" fill="#C4C4C4"/>
</g>
</g>
</svg>
