<svg width="82" height="83" viewBox="0 0 82 83" fill="none" xmlns="http://www.w3.org/2000/svg">
<path d="M10.0129 26.8926H5.33333C3.49238 26.8926 2 28.385 2 30.226V76.8926C2 78.7336 3.49238 80.226 5.33333 80.226H57.4277C59.2687 80.226 60.7611 78.7336 60.7611 76.8926V34.8926" stroke="#A17B57" stroke-width="4"/>
<path d="M23.4746 46.715C23.6925 46.2427 24.1651 45.9403 24.6852 45.9403H79.898C80.8756 45.9403 81.5209 46.9577 81.1041 47.842L65.1257 81.7468C64.9057 82.2138 64.4359 82.5117 63.9196 82.5117H9.03977C8.06676 82.5117 7.42143 81.5032 7.82912 80.6197L23.4746 46.715Z" fill="#A17B57"/>
<path d="M12.6201 63.8565V2.51172H33.5051H43.9476L54.39 13.9677V43.1618" stroke="#A17B57" stroke-width="3.33333"/>
<path d="M43.0615 4.03552L54.389 15.4641H43.0615V4.03552Z" fill="#A17B57"/>
<rect x="17.5752" y="19.2736" width="31.8584" height="3.80952" rx="1.90476" fill="#A17B57"/>
<rect x="17.5752" y="31.4641" width="31.8584" height="3.80952" rx="1.90476" fill="#A17B57"/>
</svg>
